<svg class="lds-spinner" width="12px"  height="12px"  xmlns="http://www.w3.org/2000/svg" xmlns:xlink="http://www.w3.org/1999/xlink" viewBox="0 0 100 100" preserveAspectRatio="xMidYMid" style="background: none;"><g transform="rotate(0 50 50)">
  <rect x="45" y="5" rx="0.9" ry="0.1" width="10" height="18" fill="#939393">
    <animate attributeName="opacity" values="1;0" keyTimes="0;1" dur="0.7s" begin="-0.693s" repeatCount="indefinite"></animate>
  </rect>
</g><g transform="rotate(3.6 50 50)">
  <rect x="45" y="5" rx="0.9" ry="0.1" width="10" height="18" fill="#939393">
    <animate attributeName="opacity" values="1;0" keyTimes="0;1" dur="0.7s" begin="-0.6859999999999999s" repeatCount="indefinite"></animate>
  </rect>
</g><g transform="rotate(7.2 50 50)">
  <rect x="45" y="5" rx="0.9" ry="0.1" width="10" height="18" fill="#939393">
    <animate attributeName="opacity" values="1;0" keyTimes="0;1" dur="0.7s" begin="-0.6789999999999999s" repeatCount="indefinite"></animate>
  </rect>
</g><g transform="rotate(10.8 50 50)">
  <rect x="45" y="5" rx="0.9" ry="0.1" width="10" height="18" fill="#939393">
    <animate attributeName="opacity" values="1;0" keyTimes="0;1" dur="0.7s" begin="-0.6719999999999999s" repeatCount="indefinite"></animate>
  </rect>
</g><g transform="rotate(14.4 50 50)">
  <rect x="45" y="5" rx="0.9" ry="0.1" width="10" height="18" fill="#939393">
    <animate attributeName="opacity" values="1;0" keyTimes="0;1" dur="0.7s" begin="-0.665s" repeatCount="indefinite"></animate>
  </rect>
</g><g transform="rotate(18 50 50)">
  <rect x="45" y="5" rx="0.9" ry="0.1" width="10" height="18" fill="#939393">
    <animate attributeName="opacity" values="1;0" keyTimes="0;1" dur="0.7s" begin="-0.6579999999999999s" repeatCount="indefinite"></animate>
  </rect>
</g><g transform="rotate(21.6 50 50)">
  <rect x="45" y="5" rx="0.9" ry="0.1" width="10" height="18" fill="#939393">
    <animate attributeName="opacity" values="1;0" keyTimes="0;1" dur="0.7s" begin="-0.6509999999999999s" repeatCount="indefinite"></animate>
  </rect>
</g><g transform="rotate(25.2 50 50)">
  <rect x="45" y="5" rx="0.9" ry="0.1" width="10" height="18" fill="#939393">
    <animate attributeName="opacity" values="1;0" keyTimes="0;1" dur="0.7s" begin="-0.6439999999999999s" repeatCount="indefinite"></animate>
  </rect>
</g><g transform="rotate(28.8 50 50)">
  <rect x="45" y="5" rx="0.9" ry="0.1" width="10" height="18" fill="#939393">
    <animate attributeName="opacity" values="1;0" keyTimes="0;1" dur="0.7s" begin="-0.637s" repeatCount="indefinite"></animate>
  </rect>
</g><g transform="rotate(32.4 50 50)">
  <rect x="45" y="5" rx="0.9" ry="0.1" width="10" height="18" fill="#939393">
    <animate attributeName="opacity" values="1;0" keyTimes="0;1" dur="0.7s" begin="-0.6299999999999999s" repeatCount="indefinite"></animate>
  </rect>
</g><g transform="rotate(36 50 50)">
  <rect x="45" y="5" rx="0.9" ry="0.1" width="10" height="18" fill="#939393">
    <animate attributeName="opacity" values="1;0" keyTimes="0;1" dur="0.7s" begin="-0.623s" repeatCount="indefinite"></animate>
  </rect>
</g><g transform="rotate(39.6 50 50)">
  <rect x="45" y="5" rx="0.9" ry="0.1" width="10" height="18" fill="#939393">
    <animate attributeName="opacity" values="1;0" keyTimes="0;1" dur="0.7s" begin="-0.616s" repeatCount="indefinite"></animate>
  </rect>
</g><g transform="rotate(43.2 50 50)">
  <rect x="45" y="5" rx="0.9" ry="0.1" width="10" height="18" fill="#939393">
    <animate attributeName="opacity" values="1;0" keyTimes="0;1" dur="0.7s" begin="-0.609s" repeatCount="indefinite"></animate>
  </rect>
</g><g transform="rotate(46.8 50 50)">
  <rect x="45" y="5" rx="0.9" ry="0.1" width="10" height="18" fill="#939393">
    <animate attributeName="opacity" values="1;0" keyTimes="0;1" dur="0.7s" begin="-0.602s" repeatCount="indefinite"></animate>
  </rect>
</g><g transform="rotate(50.4 50 50)">
  <rect x="45" y="5" rx="0.9" ry="0.1" width="10" height="18" fill="#939393">
    <animate attributeName="opacity" values="1;0" keyTimes="0;1" dur="0.7s" begin="-0.595s" repeatCount="indefinite"></animate>
  </rect>
</g><g transform="rotate(54 50 50)">
  <rect x="45" y="5" rx="0.9" ry="0.1" width="10" height="18" fill="#939393">
    <animate attributeName="opacity" values="1;0" keyTimes="0;1" dur="0.7s" begin="-0.588s" repeatCount="indefinite"></animate>
  </rect>
</g><g transform="rotate(57.6 50 50)">
  <rect x="45" y="5" rx="0.9" ry="0.1" width="10" height="18" fill="#939393">
    <animate attributeName="opacity" values="1;0" keyTimes="0;1" dur="0.7s" begin="-0.581s" repeatCount="indefinite"></animate>
  </rect>
</g><g transform="rotate(61.2 50 50)">
  <rect x="45" y="5" rx="0.9" ry="0.1" width="10" height="18" fill="#939393">
    <animate attributeName="opacity" values="1;0" keyTimes="0;1" dur="0.7s" begin="-0.574s" repeatCount="indefinite"></animate>
  </rect>
</g><g transform="rotate(64.8 50 50)">
  <rect x="45" y="5" rx="0.9" ry="0.1" width="10" height="18" fill="#939393">
    <animate attributeName="opacity" values="1;0" keyTimes="0;1" dur="0.7s" begin="-0.567s" repeatCount="indefinite"></animate>
  </rect>
</g><g transform="rotate(68.4 50 50)">
  <rect x="45" y="5" rx="0.9" ry="0.1" width="10" height="18" fill="#939393">
    <animate attributeName="opacity" values="1;0" keyTimes="0;1" dur="0.7s" begin="-0.56s" repeatCount="indefinite"></animate>
  </rect>
</g><g transform="rotate(72 50 50)">
  <rect x="45" y="5" rx="0.9" ry="0.1" width="10" height="18" fill="#939393">
    <animate attributeName="opacity" values="1;0" keyTimes="0;1" dur="0.7s" begin="-0.5529999999999999s" repeatCount="indefinite"></animate>
  </rect>
</g><g transform="rotate(75.6 50 50)">
  <rect x="45" y="5" rx="0.9" ry="0.1" width="10" height="18" fill="#939393">
    <animate attributeName="opacity" values="1;0" keyTimes="0;1" dur="0.7s" begin="-0.5459999999999999s" repeatCount="indefinite"></animate>
  </rect>
</g><g transform="rotate(79.2 50 50)">
  <rect x="45" y="5" rx="0.9" ry="0.1" width="10" height="18" fill="#939393">
    <animate attributeName="opacity" values="1;0" keyTimes="0;1" dur="0.7s" begin="-0.539s" repeatCount="indefinite"></animate>
  </rect>
</g><g transform="rotate(82.8 50 50)">
  <rect x="45" y="5" rx="0.9" ry="0.1" width="10" height="18" fill="#939393">
    <animate attributeName="opacity" values="1;0" keyTimes="0;1" dur="0.7s" begin="-0.5319999999999999s" repeatCount="indefinite"></animate>
  </rect>
</g><g transform="rotate(86.4 50 50)">
  <rect x="45" y="5" rx="0.9" ry="0.1" width="10" height="18" fill="#939393">
    <animate attributeName="opacity" values="1;0" keyTimes="0;1" dur="0.7s" begin="-0.525s" repeatCount="indefinite"></animate>
  </rect>
</g><g transform="rotate(90 50 50)">
  <rect x="45" y="5" rx="0.9" ry="0.1" width="10" height="18" fill="#939393">
    <animate attributeName="opacity" values="1;0" keyTimes="0;1" dur="0.7s" begin="-0.518s" repeatCount="indefinite"></animate>
  </rect>
</g><g transform="rotate(93.6 50 50)">
  <rect x="45" y="5" rx="0.9" ry="0.1" width="10" height="18" fill="#939393">
    <animate attributeName="opacity" values="1;0" keyTimes="0;1" dur="0.7s" begin="-0.5109999999999999s" repeatCount="indefinite"></animate>
  </rect>
</g><g transform="rotate(97.2 50 50)">
  <rect x="45" y="5" rx="0.9" ry="0.1" width="10" height="18" fill="#939393">
    <animate attributeName="opacity" values="1;0" keyTimes="0;1" dur="0.7s" begin="-0.504s" repeatCount="indefinite"></animate>
  </rect>
</g><g transform="rotate(100.8 50 50)">
  <rect x="45" y="5" rx="0.9" ry="0.1" width="10" height="18" fill="#939393">
    <animate attributeName="opacity" values="1;0" keyTimes="0;1" dur="0.7s" begin="-0.49699999999999994s" repeatCount="indefinite"></animate>
  </rect>
</g><g transform="rotate(104.4 50 50)">
  <rect x="45" y="5" rx="0.9" ry="0.1" width="10" height="18" fill="#939393">
    <animate attributeName="opacity" values="1;0" keyTimes="0;1" dur="0.7s" begin="-0.49s" repeatCount="indefinite"></animate>
  </rect>
</g><g transform="rotate(108 50 50)">
  <rect x="45" y="5" rx="0.9" ry="0.1" width="10" height="18" fill="#939393">
    <animate attributeName="opacity" values="1;0" keyTimes="0;1" dur="0.7s" begin="-0.483s" repeatCount="indefinite"></animate>
  </rect>
</g><g transform="rotate(111.6 50 50)">
  <rect x="45" y="5" rx="0.9" ry="0.1" width="10" height="18" fill="#939393">
    <animate attributeName="opacity" values="1;0" keyTimes="0;1" dur="0.7s" begin="-0.4759999999999999s" repeatCount="indefinite"></animate>
  </rect>
</g><g transform="rotate(115.2 50 50)">
  <rect x="45" y="5" rx="0.9" ry="0.1" width="10" height="18" fill="#939393">
    <animate attributeName="opacity" values="1;0" keyTimes="0;1" dur="0.7s" begin="-0.469s" repeatCount="indefinite"></animate>
  </rect>
</g><g transform="rotate(118.8 50 50)">
  <rect x="45" y="5" rx="0.9" ry="0.1" width="10" height="18" fill="#939393">
    <animate attributeName="opacity" values="1;0" keyTimes="0;1" dur="0.7s" begin="-0.46199999999999997s" repeatCount="indefinite"></animate>
  </rect>
</g><g transform="rotate(122.4 50 50)">
  <rect x="45" y="5" rx="0.9" ry="0.1" width="10" height="18" fill="#939393">
    <animate attributeName="opacity" values="1;0" keyTimes="0;1" dur="0.7s" begin="-0.455s" repeatCount="indefinite"></animate>
  </rect>
</g><g transform="rotate(126 50 50)">
  <rect x="45" y="5" rx="0.9" ry="0.1" width="10" height="18" fill="#939393">
    <animate attributeName="opacity" values="1;0" keyTimes="0;1" dur="0.7s" begin="-0.44799999999999995s" repeatCount="indefinite"></animate>
  </rect>
</g><g transform="rotate(129.6 50 50)">
  <rect x="45" y="5" rx="0.9" ry="0.1" width="10" height="18" fill="#939393">
    <animate attributeName="opacity" values="1;0" keyTimes="0;1" dur="0.7s" begin="-0.44099999999999995s" repeatCount="indefinite"></animate>
  </rect>
</g><g transform="rotate(133.2 50 50)">
  <rect x="45" y="5" rx="0.9" ry="0.1" width="10" height="18" fill="#939393">
    <animate attributeName="opacity" values="1;0" keyTimes="0;1" dur="0.7s" begin="-0.434s" repeatCount="indefinite"></animate>
  </rect>
</g><g transform="rotate(136.8 50 50)">
  <rect x="45" y="5" rx="0.9" ry="0.1" width="10" height="18" fill="#939393">
    <animate attributeName="opacity" values="1;0" keyTimes="0;1" dur="0.7s" begin="-0.42699999999999994s" repeatCount="indefinite"></animate>
  </rect>
</g><g transform="rotate(140.4 50 50)">
  <rect x="45" y="5" rx="0.9" ry="0.1" width="10" height="18" fill="#939393">
    <animate attributeName="opacity" values="1;0" keyTimes="0;1" dur="0.7s" begin="-0.42s" repeatCount="indefinite"></animate>
  </rect>
</g><g transform="rotate(144 50 50)">
  <rect x="45" y="5" rx="0.9" ry="0.1" width="10" height="18" fill="#939393">
    <animate attributeName="opacity" values="1;0" keyTimes="0;1" dur="0.7s" begin="-0.413s" repeatCount="indefinite"></animate>
  </rect>
</g><g transform="rotate(147.6 50 50)">
  <rect x="45" y="5" rx="0.9" ry="0.1" width="10" height="18" fill="#939393">
    <animate attributeName="opacity" values="1;0" keyTimes="0;1" dur="0.7s" begin="-0.4059999999999999s" repeatCount="indefinite"></animate>
  </rect>
</g><g transform="rotate(151.2 50 50)">
  <rect x="45" y="5" rx="0.9" ry="0.1" width="10" height="18" fill="#939393">
    <animate attributeName="opacity" values="1;0" keyTimes="0;1" dur="0.7s" begin="-0.39899999999999997s" repeatCount="indefinite"></animate>
  </rect>
</g><g transform="rotate(154.8 50 50)">
  <rect x="45" y="5" rx="0.9" ry="0.1" width="10" height="18" fill="#939393">
    <animate attributeName="opacity" values="1;0" keyTimes="0;1" dur="0.7s" begin="-0.39199999999999996s" repeatCount="indefinite"></animate>
  </rect>
</g><g transform="rotate(158.4 50 50)">
  <rect x="45" y="5" rx="0.9" ry="0.1" width="10" height="18" fill="#939393">
    <animate attributeName="opacity" values="1;0" keyTimes="0;1" dur="0.7s" begin="-0.385s" repeatCount="indefinite"></animate>
  </rect>
</g><g transform="rotate(162 50 50)">
  <rect x="45" y="5" rx="0.9" ry="0.1" width="10" height="18" fill="#939393">
    <animate attributeName="opacity" values="1;0" keyTimes="0;1" dur="0.7s" begin="-0.37799999999999995s" repeatCount="indefinite"></animate>
  </rect>
</g><g transform="rotate(165.6 50 50)">
  <rect x="45" y="5" rx="0.9" ry="0.1" width="10" height="18" fill="#939393">
    <animate attributeName="opacity" values="1;0" keyTimes="0;1" dur="0.7s" begin="-0.37099999999999994s" repeatCount="indefinite"></animate>
  </rect>
</g><g transform="rotate(169.2 50 50)">
  <rect x="45" y="5" rx="0.9" ry="0.1" width="10" height="18" fill="#939393">
    <animate attributeName="opacity" values="1;0" keyTimes="0;1" dur="0.7s" begin="-0.364s" repeatCount="indefinite"></animate>
  </rect>
</g><g transform="rotate(172.8 50 50)">
  <rect x="45" y="5" rx="0.9" ry="0.1" width="10" height="18" fill="#939393">
    <animate attributeName="opacity" values="1;0" keyTimes="0;1" dur="0.7s" begin="-0.357s" repeatCount="indefinite"></animate>
  </rect>
</g><g transform="rotate(176.4 50 50)">
  <rect x="45" y="5" rx="0.9" ry="0.1" width="10" height="18" fill="#939393">
    <animate attributeName="opacity" values="1;0" keyTimes="0;1" dur="0.7s" begin="-0.35s" repeatCount="indefinite"></animate>
  </rect>
</g><g transform="rotate(180 50 50)">
  <rect x="45" y="5" rx="0.9" ry="0.1" width="10" height="18" fill="#939393">
    <animate attributeName="opacity" values="1;0" keyTimes="0;1" dur="0.7s" begin="-0.34299999999999997s" repeatCount="indefinite"></animate>
  </rect>
</g><g transform="rotate(183.6 50 50)">
  <rect x="45" y="5" rx="0.9" ry="0.1" width="10" height="18" fill="#939393">
    <animate attributeName="opacity" values="1;0" keyTimes="0;1" dur="0.7s" begin="-0.33599999999999997s" repeatCount="indefinite"></animate>
  </rect>
</g><g transform="rotate(187.2 50 50)">
  <rect x="45" y="5" rx="0.9" ry="0.1" width="10" height="18" fill="#939393">
    <animate attributeName="opacity" values="1;0" keyTimes="0;1" dur="0.7s" begin="-0.32899999999999996s" repeatCount="indefinite"></animate>
  </rect>
</g><g transform="rotate(190.8 50 50)">
  <rect x="45" y="5" rx="0.9" ry="0.1" width="10" height="18" fill="#939393">
    <animate attributeName="opacity" values="1;0" keyTimes="0;1" dur="0.7s" begin="-0.32199999999999995s" repeatCount="indefinite"></animate>
  </rect>
</g><g transform="rotate(194.4 50 50)">
  <rect x="45" y="5" rx="0.9" ry="0.1" width="10" height="18" fill="#939393">
    <animate attributeName="opacity" values="1;0" keyTimes="0;1" dur="0.7s" begin="-0.31499999999999995s" repeatCount="indefinite"></animate>
  </rect>
</g><g transform="rotate(198 50 50)">
  <rect x="45" y="5" rx="0.9" ry="0.1" width="10" height="18" fill="#939393">
    <animate attributeName="opacity" values="1;0" keyTimes="0;1" dur="0.7s" begin="-0.308s" repeatCount="indefinite"></animate>
  </rect>
</g><g transform="rotate(201.6 50 50)">
  <rect x="45" y="5" rx="0.9" ry="0.1" width="10" height="18" fill="#939393">
    <animate attributeName="opacity" values="1;0" keyTimes="0;1" dur="0.7s" begin="-0.301s" repeatCount="indefinite"></animate>
  </rect>
</g><g transform="rotate(205.2 50 50)">
  <rect x="45" y="5" rx="0.9" ry="0.1" width="10" height="18" fill="#939393">
    <animate attributeName="opacity" values="1;0" keyTimes="0;1" dur="0.7s" begin="-0.294s" repeatCount="indefinite"></animate>
  </rect>
</g><g transform="rotate(208.8 50 50)">
  <rect x="45" y="5" rx="0.9" ry="0.1" width="10" height="18" fill="#939393">
    <animate attributeName="opacity" values="1;0" keyTimes="0;1" dur="0.7s" begin="-0.287s" repeatCount="indefinite"></animate>
  </rect>
</g><g transform="rotate(212.4 50 50)">
  <rect x="45" y="5" rx="0.9" ry="0.1" width="10" height="18" fill="#939393">
    <animate attributeName="opacity" values="1;0" keyTimes="0;1" dur="0.7s" begin="-0.28s" repeatCount="indefinite"></animate>
  </rect>
</g><g transform="rotate(216 50 50)">
  <rect x="45" y="5" rx="0.9" ry="0.1" width="10" height="18" fill="#939393">
    <animate attributeName="opacity" values="1;0" keyTimes="0;1" dur="0.7s" begin="-0.27299999999999996s" repeatCount="indefinite"></animate>
  </rect>
</g><g transform="rotate(219.6 50 50)">
  <rect x="45" y="5" rx="0.9" ry="0.1" width="10" height="18" fill="#939393">
    <animate attributeName="opacity" values="1;0" keyTimes="0;1" dur="0.7s" begin="-0.26599999999999996s" repeatCount="indefinite"></animate>
  </rect>
</g><g transform="rotate(223.2 50 50)">
  <rect x="45" y="5" rx="0.9" ry="0.1" width="10" height="18" fill="#939393">
    <animate attributeName="opacity" values="1;0" keyTimes="0;1" dur="0.7s" begin="-0.259s" repeatCount="indefinite"></animate>
  </rect>
</g><g transform="rotate(226.8 50 50)">
  <rect x="45" y="5" rx="0.9" ry="0.1" width="10" height="18" fill="#939393">
    <animate attributeName="opacity" values="1;0" keyTimes="0;1" dur="0.7s" begin="-0.252s" repeatCount="indefinite"></animate>
  </rect>
</g><g transform="rotate(230.4 50 50)">
  <rect x="45" y="5" rx="0.9" ry="0.1" width="10" height="18" fill="#939393">
    <animate attributeName="opacity" values="1;0" keyTimes="0;1" dur="0.7s" begin="-0.245s" repeatCount="indefinite"></animate>
  </rect>
</g><g transform="rotate(234 50 50)">
  <rect x="45" y="5" rx="0.9" ry="0.1" width="10" height="18" fill="#939393">
    <animate attributeName="opacity" values="1;0" keyTimes="0;1" dur="0.7s" begin="-0.23799999999999996s" repeatCount="indefinite"></animate>
  </rect>
</g><g transform="rotate(237.6 50 50)">
  <rect x="45" y="5" rx="0.9" ry="0.1" width="10" height="18" fill="#939393">
    <animate attributeName="opacity" values="1;0" keyTimes="0;1" dur="0.7s" begin="-0.23099999999999998s" repeatCount="indefinite"></animate>
  </rect>
</g><g transform="rotate(241.2 50 50)">
  <rect x="45" y="5" rx="0.9" ry="0.1" width="10" height="18" fill="#939393">
    <animate attributeName="opacity" values="1;0" keyTimes="0;1" dur="0.7s" begin="-0.22399999999999998s" repeatCount="indefinite"></animate>
  </rect>
</g><g transform="rotate(244.8 50 50)">
  <rect x="45" y="5" rx="0.9" ry="0.1" width="10" height="18" fill="#939393">
    <animate attributeName="opacity" values="1;0" keyTimes="0;1" dur="0.7s" begin="-0.217s" repeatCount="indefinite"></animate>
  </rect>
</g><g transform="rotate(248.4 50 50)">
  <rect x="45" y="5" rx="0.9" ry="0.1" width="10" height="18" fill="#939393">
    <animate attributeName="opacity" values="1;0" keyTimes="0;1" dur="0.7s" begin="-0.21s" repeatCount="indefinite"></animate>
  </rect>
</g><g transform="rotate(252 50 50)">
  <rect x="45" y="5" rx="0.9" ry="0.1" width="10" height="18" fill="#939393">
    <animate attributeName="opacity" values="1;0" keyTimes="0;1" dur="0.7s" begin="-0.20299999999999996s" repeatCount="indefinite"></animate>
  </rect>
</g><g transform="rotate(255.6 50 50)">
  <rect x="45" y="5" rx="0.9" ry="0.1" width="10" height="18" fill="#939393">
    <animate attributeName="opacity" values="1;0" keyTimes="0;1" dur="0.7s" begin="-0.19599999999999998s" repeatCount="indefinite"></animate>
  </rect>
</g><g transform="rotate(259.2 50 50)">
  <rect x="45" y="5" rx="0.9" ry="0.1" width="10" height="18" fill="#939393">
    <animate attributeName="opacity" values="1;0" keyTimes="0;1" dur="0.7s" begin="-0.18899999999999997s" repeatCount="indefinite"></animate>
  </rect>
</g><g transform="rotate(262.8 50 50)">
  <rect x="45" y="5" rx="0.9" ry="0.1" width="10" height="18" fill="#939393">
    <animate attributeName="opacity" values="1;0" keyTimes="0;1" dur="0.7s" begin="-0.182s" repeatCount="indefinite"></animate>
  </rect>
</g><g transform="rotate(266.4 50 50)">
  <rect x="45" y="5" rx="0.9" ry="0.1" width="10" height="18" fill="#939393">
    <animate attributeName="opacity" values="1;0" keyTimes="0;1" dur="0.7s" begin="-0.175s" repeatCount="indefinite"></animate>
  </rect>
</g><g transform="rotate(270 50 50)">
  <rect x="45" y="5" rx="0.9" ry="0.1" width="10" height="18" fill="#939393">
    <animate attributeName="opacity" values="1;0" keyTimes="0;1" dur="0.7s" begin="-0.16799999999999998s" repeatCount="indefinite"></animate>
  </rect>
</g><g transform="rotate(273.6 50 50)">
  <rect x="45" y="5" rx="0.9" ry="0.1" width="10" height="18" fill="#939393">
    <animate attributeName="opacity" values="1;0" keyTimes="0;1" dur="0.7s" begin="-0.16099999999999998s" repeatCount="indefinite"></animate>
  </rect>
</g><g transform="rotate(277.2 50 50)">
  <rect x="45" y="5" rx="0.9" ry="0.1" width="10" height="18" fill="#939393">
    <animate attributeName="opacity" values="1;0" keyTimes="0;1" dur="0.7s" begin="-0.154s" repeatCount="indefinite"></animate>
  </rect>
</g><g transform="rotate(280.8 50 50)">
  <rect x="45" y="5" rx="0.9" ry="0.1" width="10" height="18" fill="#939393">
    <animate attributeName="opacity" values="1;0" keyTimes="0;1" dur="0.7s" begin="-0.147s" repeatCount="indefinite"></animate>
  </rect>
</g><g transform="rotate(284.4 50 50)">
  <rect x="45" y="5" rx="0.9" ry="0.1" width="10" height="18" fill="#939393">
    <animate attributeName="opacity" values="1;0" keyTimes="0;1" dur="0.7s" begin="-0.14s" repeatCount="indefinite"></animate>
  </rect>
</g><g transform="rotate(288 50 50)">
  <rect x="45" y="5" rx="0.9" ry="0.1" width="10" height="18" fill="#939393">
    <animate attributeName="opacity" values="1;0" keyTimes="0;1" dur="0.7s" begin="-0.13299999999999998s" repeatCount="indefinite"></animate>
  </rect>
</g><g transform="rotate(291.6 50 50)">
  <rect x="45" y="5" rx="0.9" ry="0.1" width="10" height="18" fill="#939393">
    <animate attributeName="opacity" values="1;0" keyTimes="0;1" dur="0.7s" begin="-0.126s" repeatCount="indefinite"></animate>
  </rect>
</g><g transform="rotate(295.2 50 50)">
  <rect x="45" y="5" rx="0.9" ry="0.1" width="10" height="18" fill="#939393">
    <animate attributeName="opacity" values="1;0" keyTimes="0;1" dur="0.7s" begin="-0.11899999999999998s" repeatCount="indefinite"></animate>
  </rect>
</g><g transform="rotate(298.8 50 50)">
  <rect x="45" y="5" rx="0.9" ry="0.1" width="10" height="18" fill="#939393">
    <animate attributeName="opacity" values="1;0" keyTimes="0;1" dur="0.7s" begin="-0.11199999999999999s" repeatCount="indefinite"></animate>
  </rect>
</g><g transform="rotate(302.4 50 50)">
  <rect x="45" y="5" rx="0.9" ry="0.1" width="10" height="18" fill="#939393">
    <animate attributeName="opacity" values="1;0" keyTimes="0;1" dur="0.7s" begin="-0.105s" repeatCount="indefinite"></animate>
  </rect>
</g><g transform="rotate(306 50 50)">
  <rect x="45" y="5" rx="0.9" ry="0.1" width="10" height="18" fill="#939393">
    <animate attributeName="opacity" values="1;0" keyTimes="0;1" dur="0.7s" begin="-0.09799999999999999s" repeatCount="indefinite"></animate>
  </rect>
</g><g transform="rotate(309.6 50 50)">
  <rect x="45" y="5" rx="0.9" ry="0.1" width="10" height="18" fill="#939393">
    <animate attributeName="opacity" values="1;0" keyTimes="0;1" dur="0.7s" begin="-0.091s" repeatCount="indefinite"></animate>
  </rect>
</g><g transform="rotate(313.2 50 50)">
  <rect x="45" y="5" rx="0.9" ry="0.1" width="10" height="18" fill="#939393">
    <animate attributeName="opacity" values="1;0" keyTimes="0;1" dur="0.7s" begin="-0.08399999999999999s" repeatCount="indefinite"></animate>
  </rect>
</g><g transform="rotate(316.8 50 50)">
  <rect x="45" y="5" rx="0.9" ry="0.1" width="10" height="18" fill="#939393">
    <animate attributeName="opacity" values="1;0" keyTimes="0;1" dur="0.7s" begin="-0.077s" repeatCount="indefinite"></animate>
  </rect>
</g><g transform="rotate(320.4 50 50)">
  <rect x="45" y="5" rx="0.9" ry="0.1" width="10" height="18" fill="#939393">
    <animate attributeName="opacity" values="1;0" keyTimes="0;1" dur="0.7s" begin="-0.07s" repeatCount="indefinite"></animate>
  </rect>
</g><g transform="rotate(324 50 50)">
  <rect x="45" y="5" rx="0.9" ry="0.1" width="10" height="18" fill="#939393">
    <animate attributeName="opacity" values="1;0" keyTimes="0;1" dur="0.7s" begin="-0.063s" repeatCount="indefinite"></animate>
  </rect>
</g><g transform="rotate(327.6 50 50)">
  <rect x="45" y="5" rx="0.9" ry="0.1" width="10" height="18" fill="#939393">
    <animate attributeName="opacity" values="1;0" keyTimes="0;1" dur="0.7s" begin="-0.055999999999999994s" repeatCount="indefinite"></animate>
  </rect>
</g><g transform="rotate(331.2 50 50)">
  <rect x="45" y="5" rx="0.9" ry="0.1" width="10" height="18" fill="#939393">
    <animate attributeName="opacity" values="1;0" keyTimes="0;1" dur="0.7s" begin="-0.048999999999999995s" repeatCount="indefinite"></animate>
  </rect>
</g><g transform="rotate(334.8 50 50)">
  <rect x="45" y="5" rx="0.9" ry="0.1" width="10" height="18" fill="#939393">
    <animate attributeName="opacity" values="1;0" keyTimes="0;1" dur="0.7s" begin="-0.041999999999999996s" repeatCount="indefinite"></animate>
  </rect>
</g><g transform="rotate(338.4 50 50)">
  <rect x="45" y="5" rx="0.9" ry="0.1" width="10" height="18" fill="#939393">
    <animate attributeName="opacity" values="1;0" keyTimes="0;1" dur="0.7s" begin="-0.035s" repeatCount="indefinite"></animate>
  </rect>
</g><g transform="rotate(342 50 50)">
  <rect x="45" y="5" rx="0.9" ry="0.1" width="10" height="18" fill="#939393">
    <animate attributeName="opacity" values="1;0" keyTimes="0;1" dur="0.7s" begin="-0.027999999999999997s" repeatCount="indefinite"></animate>
  </rect>
</g><g transform="rotate(345.6 50 50)">
  <rect x="45" y="5" rx="0.9" ry="0.1" width="10" height="18" fill="#939393">
    <animate attributeName="opacity" values="1;0" keyTimes="0;1" dur="0.7s" begin="-0.020999999999999998s" repeatCount="indefinite"></animate>
  </rect>
</g><g transform="rotate(349.2 50 50)">
  <rect x="45" y="5" rx="0.9" ry="0.1" width="10" height="18" fill="#939393">
    <animate attributeName="opacity" values="1;0" keyTimes="0;1" dur="0.7s" begin="-0.013999999999999999s" repeatCount="indefinite"></animate>
  </rect>
</g><g transform="rotate(352.8 50 50)">
  <rect x="45" y="5" rx="0.9" ry="0.1" width="10" height="18" fill="#939393">
    <animate attributeName="opacity" values="1;0" keyTimes="0;1" dur="0.7s" begin="-0.006999999999999999s" repeatCount="indefinite"></animate>
  </rect>
</g><g transform="rotate(356.4 50 50)">
  <rect x="45" y="5" rx="0.9" ry="0.1" width="10" height="18" fill="#939393">
    <animate attributeName="opacity" values="1;0" keyTimes="0;1" dur="0.7s" begin="0s" repeatCount="indefinite"></animate>
  </rect>
</g></svg>