<svg id="Ebene_1" data-name="Ebene 1" xmlns="http://www.w3.org/2000/svg" width="256" height="94.1718" viewBox="0 0 256 94.1718">
  <title>ExpressVersandMit_DHL_webshop_logo_mit_zusatz_text_weiss</title>
  <rect y="37.843" width="256" height="56.3288" fill="#fc0"/>
  <polygon points="0 76.783 34.62 76.783 32.729 79.35 0 79.35 0 76.783" fill="#d40511"/>
  <polygon points="0 72.022 38.137 72.022 36.243 74.585 0 74.585 0 72.022" fill="#d40511"/>
  <polygon points="0 81.548 31.105 81.548 29.222 84.096 0 84.096 0 81.548" fill="#d40511"/>
  <polygon points="256 79.349 221.515 79.349 223.405 76.785 256 76.785 256 79.349" fill="#d40511"/>
  <polygon points="256 84.096 218.009 84.1 219.891 81.548 256 81.548 256 84.096" fill="#d40511"/>
  <polygon points="226.92 72.022 256 72.022 256 74.587 225.027 74.589 226.92 72.022" fill="#d40511"/>
  <path d="M33.5315,84.0961,49.96,61.841H70.3458c2.2533,0,2.2244.8528,1.1226,2.3412-1.1181,1.511-3.0209,4.108-4.1606,5.6415-.578.78-1.6229,2.1989,1.8405,2.1989h27.311C94.1879,75.1247,86.82,84.0961,73.5916,84.0961Z" fill="#d40511"/>
  <path d="M127.6154,72.0207,118.7071,84.096h-23.5s8.9037-12.0735,8.9119-12.0735Z" fill="#d40511"/>
  <path d="M161.5984,72.0225l-8.9128,12.0734H129.1939s8.9047-12.0734,8.9128-12.0734Z" fill="#d40511"/>
  <path d="M169.2405,72.0225c.0009,0-1.7159,2.3412-2.55,3.465-2.9513,3.9764-.3432,8.6084,9.2876,8.6084h37.7274l8.9119-12.0734Z" fill="#d40511"/>
  <path d="M45.02,48.0018l-8.1795,11.08H81.4172c2.2533,0,2.2235.8527,1.1226,2.34-1.118,1.5092-2.99,4.1368-4.129,5.67-.578.7771-1.6238,2.1971,1.84,2.1971H98.48s2.9378-3.9873,5.4006-7.32c3.3514-4.5339.2908-13.9681-11.6881-13.9681Z" fill="#d40511"/>
  <polygon points="163.616 69.289 106.138 69.289 121.856 48.001 145.347 48.001 136.341 60.207 146.826 60.207 155.841 48.001 179.329 48.001 163.616 69.289" fill="#d40511"/>
  <path d="M211.8639,48.0018,196.15,69.29H171.2555s15.72-21.288,15.7277-21.288Z" fill="#d40511"/>
  <g>
    <path d="M0,16.24V.9282H9.5352v1.856H2.0645V7.54H8.8389V9.3267H2.0645v5.0576H9.7671V16.24Z" fill="#fff"/>
    <path d="M11.2515,16.24l3.99-5.8462L11.437,4.64h2.2505l2.7842,4.3848H16.75L19.5571,4.64h2.1343l-3.8047,5.73,3.9673,5.87h-2.25l-2.9463-4.5009h-.2783L13.3857,16.24Z" fill="#fff"/>
    <path d="M23.9185,20.6484V4.64H25.751V6.8677A4.5847,4.5847,0,0,1,27.34,5.0464a4.03,4.03,0,0,1,2.2388-.6382,3.9534,3.9534,0,0,1,2.32.6958,4.4992,4.4992,0,0,1,1.543,1.9492A7.3414,7.3414,0,0,1,33.9868,10v.8814a7.3431,7.3431,0,0,1-.5449,2.9467,4.5,4.5,0,0,1-1.543,1.9488,3.9541,3.9541,0,0,1-2.32.6958,4.0791,4.0791,0,0,1-2.1343-.5684A4.339,4.339,0,0,1,25.89,14.2681v6.38ZM28.93,6.1714a3.14,3.14,0,0,0-1.752.522,3.7925,3.7925,0,0,0-1.2876,1.45v4.5932a3.7889,3.7889,0,0,0,1.2876,1.45,3.14,3.14,0,0,0,1.752.522,2.7354,2.7354,0,0,0,2.2617-1.0322,4.4824,4.4824,0,0,0,.8237-2.8653v-.7427a4.4832,4.4832,0,0,0-.8237-2.8652A2.7366,2.7366,0,0,0,28.93,6.1714Z" fill="#fff"/>
    <path d="M36.98,16.24V4.64h1.8325V7.3545A5.3748,5.3748,0,0,1,39.59,5.9624,3.79,3.79,0,0,1,42.7334,4.478a4.9372,4.9372,0,0,1,.812.0694V6.4268q-.186-.0228-.4062-.0352c-.147-.0073-.29-.0112-.4292-.0112a3.8264,3.8264,0,0,0-2.378.6958,4.7986,4.7986,0,0,0-1.38,1.5776V16.24Z" fill="#fff"/>
    <path d="M50.39,16.5186a5.3913,5.3913,0,0,1-2.8535-.7193,4.7176,4.7176,0,0,1-1.8095-1.9834,6.5266,6.5266,0,0,1-.6265-2.935V10a6.7624,6.7624,0,0,1,.603-2.9233A4.71,4.71,0,0,1,47.42,5.0811a4.8148,4.8148,0,0,1,2.668-.7193,4.7027,4.7027,0,0,1,2.645.7193A4.4753,4.4753,0,0,1,54.38,7.0645a7.1673,7.1673,0,0,1,.5566,2.9116V11.09H47.0254a4.1741,4.1741,0,0,0,.9512,2.7027,3.2146,3.2146,0,0,0,2.5288.9863,4.2266,4.2266,0,0,0,1.7168-.3364,4.7414,4.7414,0,0,0,1.3921-.94l.9975,1.3457a5.6623,5.6623,0,0,1-1.8442,1.2295A6.1185,6.1185,0,0,1,50.39,16.5186ZM50.0415,6.0557a2.6222,2.6222,0,0,0-2.1226.9277,4.2816,4.2816,0,0,0-.87,2.5752h5.9854a4.3944,4.3944,0,0,0-.8584-2.5405A2.5737,2.5737,0,0,0,50.0415,6.0557Z" fill="#fff"/>
    <path d="M60.876,16.5186a5.97,5.97,0,0,1-4.2691-1.6241l.9048-1.3222a4.8253,4.8253,0,0,0,3.3408,1.2758,3.2725,3.2725,0,0,0,1.8912-.4755,1.49,1.49,0,0,0,.684-1.2876q0-1.3221-1.5542-1.6934l-1.7168-.3945A4.3539,4.3539,0,0,1,57.86,9.7905a3.0338,3.0338,0,0,1-.7886-2.1342,2.88,2.88,0,0,1,1.1714-2.378,4.8086,4.8086,0,0,1,3.0508-.9165A6.3612,6.3612,0,0,1,65.4,5.8232l-.8584,1.3692a5.0755,5.0755,0,0,0-3.1318-1.16,2.9935,2.9935,0,0,0-1.7285.4409,1.37,1.37,0,0,0-.6382,1.1832q0,1.1828,1.67,1.5776l1.7168.3945q3.016.7193,3.0161,3.4566a2.9668,2.9668,0,0,1-1.2412,2.5058A5.4323,5.4323,0,0,1,60.876,16.5186Z" fill="#fff"/>
    <path d="M71.4316,16.5186a5.97,5.97,0,0,1-4.269-1.6241l.9048-1.3222a4.8252,4.8252,0,0,0,3.3408,1.2758,3.2719,3.2719,0,0,0,1.8911-.4755,1.49,1.49,0,0,0,.6841-1.2876q0-1.3221-1.5542-1.6934l-1.7168-.3945a4.3542,4.3542,0,0,1-2.2969-1.2066,3.0337,3.0337,0,0,1-.7885-2.1342,2.8807,2.8807,0,0,1,1.1713-2.378,4.809,4.809,0,0,1,3.0508-.9165,6.3614,6.3614,0,0,1,4.1065,1.4614l-.8584,1.3692a5.0755,5.0755,0,0,0-3.1319-1.16,2.994,2.994,0,0,0-1.7285.4409,1.37,1.37,0,0,0-.6382,1.1832q0,1.1828,1.67,1.5776l1.7168.3945q3.0162.7193,3.0162,3.4566a2.9667,2.9667,0,0,1-1.2413,2.5058A5.4321,5.4321,0,0,1,71.4316,16.5186Z" fill="#fff"/>
    <path d="M77.8574,9.93V8.0508h7.1V9.93Z" fill="#fff"/>
    <path d="M90.3164,16.24,85.3286.9282h2.1572l4.3155,13.41h.3247L96.4414.9282h2.0879L93.541,16.24Z" fill="#fff"/>
    <path d="M104.5146,16.5186a5.3913,5.3913,0,0,1-2.8535-.7193,4.7176,4.7176,0,0,1-1.8095-1.9834,6.5266,6.5266,0,0,1-.6265-2.935V10a6.7624,6.7624,0,0,1,.603-2.9233,4.71,4.71,0,0,1,1.7168-1.9951,4.8148,4.8148,0,0,1,2.668-.7193,4.7027,4.7027,0,0,1,2.645.7193,4.4753,4.4753,0,0,1,1.647,1.9834,7.1673,7.1673,0,0,1,.5566,2.9116V11.09H101.15a4.1741,4.1741,0,0,0,.9512,2.7027,3.2146,3.2146,0,0,0,2.5288.9863,4.2266,4.2266,0,0,0,1.7168-.3364,4.7414,4.7414,0,0,0,1.3921-.94l.9975,1.3457a5.6623,5.6623,0,0,1-1.8442,1.2295A6.1185,6.1185,0,0,1,104.5146,16.5186Zm-.3481-10.4629a2.6222,2.6222,0,0,0-2.1226.9277,4.2816,4.2816,0,0,0-.87,2.5752h5.9854a4.3944,4.3944,0,0,0-.8584-2.5405A2.5737,2.5737,0,0,0,104.1665,6.0557Z" fill="#fff"/>
    <path d="M111.8691,16.24V4.64h1.8326V7.3545a5.3748,5.3748,0,0,1,.7773-1.3921,3.79,3.79,0,0,1,3.1436-1.4844,4.9372,4.9372,0,0,1,.812.0694V6.4268q-.1861-.0228-.4063-.0352c-.147-.0073-.29-.0112-.4292-.0112a3.8261,3.8261,0,0,0-2.3779.6958,4.8,4.8,0,0,0-1.38,1.5776V16.24Z" fill="#fff"/>
    <path d="M123.9561,16.5186a5.97,5.97,0,0,1-4.2691-1.6241l.9048-1.3222a4.8253,4.8253,0,0,0,3.3408,1.2758,3.2719,3.2719,0,0,0,1.8911-.4755,1.49,1.49,0,0,0,.6841-1.2876q0-1.3221-1.5542-1.6934l-1.7168-.3945A4.3542,4.3542,0,0,1,120.94,9.7905a3.0342,3.0342,0,0,1-.7885-2.1342,2.88,2.88,0,0,1,1.1714-2.378,4.8085,4.8085,0,0,1,3.0507-.9165A6.3614,6.3614,0,0,1,128.48,5.8232l-.8584,1.3692a5.0755,5.0755,0,0,0-3.1319-1.16,2.994,2.994,0,0,0-1.7285.4409,1.37,1.37,0,0,0-.6382,1.1832q0,1.1828,1.67,1.5776l1.7168.3945q3.0161.7193,3.0161,3.4566a2.9668,2.9668,0,0,1-1.2412,2.5058A5.4325,5.4325,0,0,1,123.9561,16.5186Z" fill="#fff"/>
    <path d="M133.7461,16.4722a3.49,3.49,0,0,1-2.5288-.94,3.2477,3.2477,0,0,1-.9746-2.4477,3.2511,3.2511,0,0,1,1.23-2.68,5.1924,5.1924,0,0,1,3.3408-.9859h2.6216V9.0483q0-2.9464-2.7378-2.9462a4.3633,4.3633,0,0,0-1.5542.29,3.8791,3.8791,0,0,0-1.3228.8237L130.8,5.8931a5.6045,5.6045,0,0,1,4.0366-1.5313q4.4774,0,4.4776,4.6865v4.5005q0,1.23.9746,1.23a1.7826,1.7826,0,0,0,.1972-.0117c.0694-.0078.1582-.0191.2666-.0347v1.67a5.572,5.572,0,0,1-.9511.0694,2.0579,2.0579,0,0,1-2.2735-2.1343,4.4633,4.4633,0,0,1-1.601,1.5776A4.3172,4.3172,0,0,1,133.7461,16.4722Zm.58-1.6934a3.4378,3.4378,0,0,0,3.1089-1.9487V10.9507H134.999a3.3913,3.3913,0,0,0-2.042.5449,1.7563,1.7563,0,0,0-.7422,1.4966,1.6252,1.6252,0,0,0,.5684,1.2993A2.2926,2.2926,0,0,0,134.3262,14.7788Z" fill="#fff"/>
    <path d="M143.0728,16.24V4.64h1.8325V6.8677a5.2579,5.2579,0,0,1,1.4619-1.74,3.7509,3.7509,0,0,1,2.3662-.7192,3.5631,3.5631,0,0,1,2.7725,1.1367,4.8929,4.8929,0,0,1,1.0322,3.3872V16.24h-1.9722V9.1875a3.3894,3.3894,0,0,0-.6494-2.2622,2.2889,2.2889,0,0,0-1.8325-.7539,2.896,2.896,0,0,0-1.8677.603,4.5385,4.5385,0,0,0-1.1719,1.3692V16.24Z" fill="#fff"/>
    <path d="M159.7993,16.4722a3.94,3.94,0,0,1-2.3315-.6958,4.5284,4.5284,0,0,1-1.5313-1.9488,7.3431,7.3431,0,0,1-.5449-2.9467V10a7.3414,7.3414,0,0,1,.5449-2.9463A4.4963,4.4963,0,0,1,157.48,5.104a3.9523,3.9523,0,0,1,2.32-.6958,4.0834,4.0834,0,0,1,2.1348.5684,4.352,4.352,0,0,1,1.5542,1.6357V0H165.46V16.24h-1.833v-2.227a4.5958,4.5958,0,0,1-1.5893,1.8213A4.0337,4.0337,0,0,1,159.7993,16.4722Zm-2.436-5.6607a4.4794,4.4794,0,0,0,.8237,2.8653,2.7345,2.7345,0,0,0,2.2622,1.0322,3.1412,3.1412,0,0,0,1.7515-.522,3.7889,3.7889,0,0,0,1.2876-1.45V8.1436a3.7925,3.7925,0,0,0-1.2876-1.45,3.1412,3.1412,0,0,0-1.7515-.522,2.7356,2.7356,0,0,0-2.2622,1.0322,4.48,4.48,0,0,0-.8237,2.8652Z" fill="#fff"/>
    <path d="M173.9746,16.24V4.64h1.8325V6.8677a4.8622,4.8622,0,0,1,1.4385-1.752,3.7532,3.7532,0,0,1,2.3433-.7075,3.5963,3.5963,0,0,1,2.146.6382A3.4262,3.4262,0,0,1,182.999,6.937,5.4382,5.4382,0,0,1,184.4609,5.15a3.7452,3.7452,0,0,1,2.4126-.7422A3.4635,3.4635,0,0,1,189.6,5.5449a4.9661,4.9661,0,0,1,1.0093,3.3872V16.24h-1.9722V9.1875a3.5267,3.5267,0,0,0-.6147-2.2622,2.1589,2.1589,0,0,0-1.7749-.7539,2.8121,2.8121,0,0,0-1.8325.603,4.3023,4.3023,0,0,0-1.1368,1.3692V16.24h-1.9721V9.1875a3.526,3.526,0,0,0-.6148-2.2622,2.1586,2.1586,0,0,0-1.7749-.7539,2.8146,2.8146,0,0,0-1.833.603,4.3032,4.3032,0,0,0-1.1367,1.3692V16.24Z" fill="#fff"/>
    <path d="M195.1094,2.7842a1.3094,1.3094,0,0,1-.9512-.3594,1.1931,1.1931,0,0,1-.3711-.8935A1.1555,1.1555,0,0,1,194.1582.65a1.4735,1.4735,0,0,1,1.9023,0,1.1555,1.1555,0,0,1,.3711.8814,1.1931,1.1931,0,0,1-.3711.8935A1.31,1.31,0,0,1,195.1094,2.7842Zm-.9741,13.456V4.64h1.9716v11.6Z" fill="#fff"/>
    <path d="M203.856,16.4722a3.3648,3.3648,0,0,1-2.7378-.9629,4.97,4.97,0,0,1-.7886-3.1436V6.3105h-1.9951V4.64H200.33V2.0649l1.9722-.4638V4.64h2.9692v1.67h-2.9692v5.9859a2.9219,2.9219,0,0,0,.4755,1.96,2.0529,2.0529,0,0,0,1.5425.4986c.1392,0,.29-.0074.4527-.023s.3281-.0386.4985-.07v1.6938q-.3018.0462-.6611.0811T203.856,16.4722Z" fill="#fff"/>
  </g>
</svg>
