<svg id="Ebene_1" data-name="Ebene 1" xmlns="http://www.w3.org/2000/svg" width="256" height="133.9907" viewBox="0 0 256 133.9907">
  <title>Zeichenfläche 1</title>
  <g>
    <polygon points="0 0 256 0 256 56.32 0 56.32 0 0 0 0 0 0" fill="#fc0"/>
    <path d="M206.9257,39.8313h6.1564l-6.217,6.2916h-6.1564Zm-8.3042,0-6.2166,6.2916h6.1564l6.2169-6.2916Zm15.8888,0,6.2171,6.2916h6.1567l-6.217-6.2916Zm8.3043,0,6.217,6.2916h6.1563l-6.217-6.2916Zm-9.4854-1.1323c-16.1367-.0057-22.3746-14.0347-21.5352-24.6664l4.7395-1.5075a18.79,18.79,0,0,0,2.3938,12.4128A13.0112,13.0112,0,0,1,211.9362,9.4458c7.2731-.0049,13.2892,5.3068,13.2608,12.9274a40.5045,40.5045,0,0,0,1.963-10.4364l10.9208,2.7182C237.2077,27.475,227.5927,38.7035,213.3292,38.699Zm7.37-16.0567a8.7408,8.7408,0,1,0-8.7407,8.7411A8.7405,8.7405,0,0,0,220.6993,22.6423Zm-42.7412-.1667L174.55,23.5505V26.513H172.505v2.8576h1.9925v5.7152a5.5944,5.5944,0,0,0,1.0749,3.8277,4.7506,4.7506,0,0,0,3.644,1.18q.5238,0,.9307-.0262t.7472-.0787V37.157q-.21.0267-.4588.0393t-.4588.0131a3.749,3.749,0,0,1-.8782-.0918,1.2426,1.2426,0,0,1-.6292-.3539,1.5988,1.5988,0,0,1-.3671-.7078,4.5019,4.5019,0,0,1-.1179-1.1274V29.3706h2.91V26.513h-2.9362Zm-110.2359,0-3.4081,1.0749V26.513H62.2692v2.8576h1.9925v5.7152a5.5949,5.5949,0,0,0,1.0748,3.8277,4.7512,4.7512,0,0,0,3.6441,1.18q.5238,0,.9307-.0262t.7472-.0787V37.157q-.21.0267-.4588.0393t-.4588.0131a3.749,3.749,0,0,1-.8782-.0918,1.2426,1.2426,0,0,1-.6292-.3539,1.5988,1.5988,0,0,1-.3671-.7078,4.5019,4.5019,0,0,1-.1179-1.1274V29.3706h2.91V26.513H67.7222ZM91.6267,37.157a2.816,2.816,0,0,1-2.2546-.9439,3.8461,3.8461,0,0,1-.8127-2.5954v-.8914a3.8892,3.8892,0,0,1,.8-2.5954,2.7467,2.7467,0,0,1,2.2153-.9438,3.392,3.392,0,0,1,2.4644,1.0749l1.7565-2.2284A5.7866,5.7866,0,0,0,93.7241,26.67a6.9175,6.9175,0,0,0-2.543-.4719,6.5555,6.5555,0,0,0-2.53.4719,5.7406,5.7406,0,0,0-1.9532,1.3108,5.64,5.64,0,0,0-1.2453,2.0318,7.6833,7.6833,0,0,0-.4325,2.6348v1.0487a7.5457,7.5457,0,0,0,.4457,2.6609,5.8769,5.8769,0,0,0,1.2452,2.0318,5.4166,5.4166,0,0,0,1.9532,1.2977,6.8984,6.8984,0,0,0,2.5692.4588,6.4979,6.4979,0,0,0,4.719-1.8351l-1.73-2.2284A3.8383,3.8383,0,0,1,91.6267,37.157ZM79.672,31.9136l-1.5468-.3408q-1.5471-.34-1.5468-1.3632a1.0627,1.0627,0,0,1,.5374-.9438,2.8114,2.8114,0,0,1,1.5075-.3409,5.408,5.408,0,0,1,3.3295,1.1011l1.3633-2.2546a8.2217,8.2217,0,0,0-5.0336-1.573A6.0534,6.0534,0,0,0,74.4286,27.3a3.6379,3.6379,0,0,0-1.3894,3.0149,3.8022,3.8022,0,0,0,.9307,2.6217,4.94,4.94,0,0,0,2.74,1.4419l1.5468.3408a2.4459,2.4459,0,0,1,1.14.4719,1.0673,1.0673,0,0,1,.3539.8389q0,1.39-2.2284,1.3895a5.9393,5.9393,0,0,1-3.6965-1.2846L72.41,38.3629a7.5349,7.5349,0,0,0,2.3333,1.35,8.5288,8.5288,0,0,0,2.8313.4325,7.072,7.072,0,0,0,4.2471-1.1142,3.6581,3.6581,0,0,0,1.5206-3.1329Q83.3423,32.7006,79.672,31.9136Zm87.8518,0-1.573-.3408q-1.521-.34-1.52-1.3632a1.0627,1.0627,0,0,1,.5374-.9438,2.8112,2.8112,0,0,1,1.5075-.3409,5.4808,5.4808,0,0,1,3.3295,1.1011l1.337-2.2546a8.1807,8.1807,0,0,0-5.0073-1.573,6.1106,6.1106,0,0,0-3.867,1.1011,3.6239,3.6239,0,0,0-1.4026,3.0149,3.7725,3.7725,0,0,0,.9438,2.6217,5.012,5.012,0,0,0,2.7528,1.4419l1.52.3408q1.52.3145,1.5206,1.3108,0,1.39-2.2546,1.3895a5.8586,5.8586,0,0,1-1.9139-.3146,6.0081,6.0081,0,0,1-1.7564-.97l-1.442,2.2284a7.4953,7.4953,0,0,0,2.3464,1.35,8.5606,8.5606,0,0,0,2.8183.4325,7.06,7.06,0,0,0,4.26-1.1142,3.67,3.67,0,0,0,1.5074-3.1329Q171.1679,32.7266,167.5238,31.9136ZM56.5158,35.6888a3.2369,3.2369,0,0,1-.97,1.0094,2.5182,2.5182,0,0,1-1.4419.4063,1.8854,1.8854,0,0,1-1.5861-.6554,3.0152,3.0152,0,0,1-.5112-1.8876V26.513H48.52v8.3107A6.2416,6.2416,0,0,0,49.5815,38.73a3.6114,3.6114,0,0,0,3.028,1.3632A4.2156,4.2156,0,0,0,55.1,39.3723a5.1443,5.1443,0,0,0,1.6254-1.9007V39.831h3.2771V26.513H56.5158Zm-11.7593-7.76A7.0237,7.0237,0,0,1,46.2639,32.7v1.5468H37.8746a2.98,2.98,0,0,0,3.3033,3.0673,5.1788,5.1788,0,0,0,1.7434-.2752,6.13,6.13,0,0,0,1.5337-.8259l1.4681,2.2023a7.7538,7.7538,0,0,1-2.2415,1.2714,7.9558,7.9558,0,0,1-2.7659.4588A7.6433,7.6433,0,0,1,38.2285,39.7a5.8206,5.8206,0,0,1-2.0449-1.2715,5.3676,5.3676,0,0,1-1.2977-2.0318,7.74,7.74,0,0,1-.4457-2.7V32.6477a8.0585,8.0585,0,0,1,.4195-2.6872,5.685,5.685,0,0,1,1.206-2.0318,5.2347,5.2347,0,0,1,1.9007-1.2846,6.6946,6.6946,0,0,1,2.5036-.4457A5.3808,5.3808,0,0,1,44.7565,27.9287Zm-1.8483,4.09a3.992,3.992,0,0,0-.6816-2.2153,2.1527,2.1527,0,0,0-1.8352-.8,2.1883,2.1883,0,0,0-1.8483.8,3.786,3.786,0,0,0-.6685,2.2153Zm78.8545-4.09A7.0232,7.0232,0,0,1,123.27,32.7v1.5468h-8.3893a2.98,2.98,0,0,0,3.3033,3.0673,5.1793,5.1793,0,0,0,1.7434-.2752,6.13,6.13,0,0,0,1.5336-.8259l1.4682,2.2023a7.7544,7.7544,0,0,1-2.2416,1.2714,7.9557,7.9557,0,0,1-2.7658.4588,7.6433,7.6433,0,0,1-2.6872-.4456,5.8206,5.8206,0,0,1-2.0449-1.2715,5.3664,5.3664,0,0,1-1.2977-2.0318,7.74,7.74,0,0,1-.4457-2.7V32.6477a8.056,8.056,0,0,1,.4195-2.6872,5.6848,5.6848,0,0,1,1.2059-2.0318,5.2364,5.2364,0,0,1,1.9007-1.2846,6.6955,6.6955,0,0,1,2.5037-.4457A5.38,5.38,0,0,1,121.7627,27.9287Zm-1.8482,4.09a3.9928,3.9928,0,0,0-.6816-2.2153,2.5058,2.5058,0,0,0-3.67,0,3.9872,3.9872,0,0,0-.6816,2.2153Zm-14.9173-5.7677a4.1644,4.1644,0,0,0-2.3857.6555,5.1756,5.1756,0,0,0-1.5992,1.7565V21.4794H97.5255V39.831h3.4868v-9.15a3.4,3.4,0,0,1,.9962-1.0355,2.6176,2.6176,0,0,1,1.5206-.4326,1.9,1.9,0,0,1,1.6123.6685,3.0757,3.0757,0,0,1,.5112,1.9007V39.831h3.4868V31.52a6.181,6.181,0,0,0-1.0748-3.9194A3.6944,3.6944,0,0,0,104.9972,26.2508Zm53.495,3.71a7.8444,7.8444,0,0,1,.4326,2.6872v1.0487a7.8423,7.8423,0,0,1-.4326,2.6872,5.6369,5.6369,0,0,1-1.2453,2.0318A5.3688,5.3688,0,0,1,155.2545,39.7a8.09,8.09,0,0,1-5.2958,0,5.3648,5.3648,0,0,1-1.9924-1.2846,5.6287,5.6287,0,0,1-1.2453-2.0318,7.8423,7.8423,0,0,1-.4326-2.6872V32.6477a7.8444,7.8444,0,0,1,.4326-2.6872,5.6372,5.6372,0,0,1,1.2453-2.0318,5.3772,5.3772,0,0,1,1.9924-1.2846,8.0884,8.0884,0,0,1,5.2958,0,5.3813,5.3813,0,0,1,1.9924,1.2846A5.6455,5.6455,0,0,1,158.4922,29.9605Zm-3.0542,2.7658a4.1323,4.1323,0,0,0-.7472-2.7,2.8825,2.8825,0,0,0-4.1684,0,4.1317,4.1317,0,0,0-.7472,2.7v.8914a4.13,4.13,0,0,0,.7472,2.7,2.8823,2.8823,0,0,0,4.1684,0,4.131,4.131,0,0,0,.7472-2.7ZM144.663,25.7a5.2058,5.2058,0,0,1,.4718,2.2546v.5243a5.4217,5.4217,0,0,1-.4588,2.2678,4.5943,4.5943,0,0,1-1.3239,1.7041,6.2493,6.2493,0,0,1-2.0973,1.0749,9.4077,9.4077,0,0,1-2.779.38H135.592V39.831h-3.6441V22.5281h6.5279a9.3259,9.3259,0,0,1,2.7528.38,6.1284,6.1284,0,0,1,2.0973,1.088A4.8779,4.8779,0,0,1,144.663,25.7Zm-3.1723,2.3333a2.2984,2.2984,0,0,0-.7734-1.8745,3.43,3.43,0,0,0-2.2415-.6423H135.592v5.4006h2.8838a3.4271,3.4271,0,0,0,2.2415-.6423,2.2971,2.2971,0,0,0,.7734-1.8745ZM30.3061,24.5861a7.9355,7.9355,0,0,1,2.0711,5.8856v1.4157a7.9342,7.9342,0,0,1-2.0711,5.8857,8.0477,8.0477,0,0,1-5.925,2.0579H18.0892V22.5281h6.2919A8.0494,8.0494,0,0,1,30.3061,24.5861Zm-1.573,6.0429q0-4.9809-4.352-4.9811H21.7332V36.7113h2.6479q4.3518,0,4.352-4.9812Z"/>
    <rect y="77.6618" width="256" height="56.3288" fill="#fc0"/>
    <polygon points="0 116.602 34.62 116.602 32.729 119.168 0 119.168 0 116.602" fill="#d40511"/>
    <polygon points="0 111.841 38.137 111.841 36.243 114.404 0 114.404 0 111.841" fill="#d40511"/>
    <polygon points="0 121.367 31.105 121.367 29.222 123.915 0 123.915 0 121.367" fill="#d40511"/>
    <polygon points="256 119.168 221.515 119.168 223.405 116.604 256 116.604 256 119.168" fill="#d40511"/>
    <polygon points="256 123.915 218.009 123.919 219.891 121.367 256 121.367 256 123.915" fill="#d40511"/>
    <polygon points="226.92 111.841 256 111.841 256 114.406 225.027 114.408 226.92 111.841" fill="#d40511"/>
    <path d="M33.5315,123.915,49.96,101.66H70.3458c2.2533,0,2.2244.8527,1.1226,2.3412-1.1181,1.511-3.0209,4.1079-4.1606,5.6414-.578.78-1.6229,2.199,1.8405,2.199h27.311c-2.2714,3.1021-9.6389,12.0735-22.8677,12.0735Z" fill="#d40511"/>
    <path d="M127.6154,111.84l-8.9083,12.0753h-23.5s8.9037-12.0735,8.9119-12.0735Z" fill="#d40511"/>
    <path d="M161.5984,111.8413l-8.9128,12.0735H129.1939s8.9047-12.0735,8.9128-12.0735Z" fill="#d40511"/>
    <path d="M169.2405,111.8413c.0009,0-1.7159,2.3412-2.55,3.465-2.9513,3.9765-.3432,8.6085,9.2876,8.6085h37.7274l8.9119-12.0735Z" fill="#d40511"/>
    <path d="M45.02,87.8206l-8.1795,11.08H81.4172c2.2533,0,2.2235.8528,1.1226,2.34-1.118,1.5092-2.99,4.1368-4.129,5.67-.578.7771-1.6238,2.1971,1.84,2.1971H98.48s2.9378-3.9872,5.4006-7.32c3.3514-4.5338.2908-13.9681-11.6881-13.9681Z" fill="#d40511"/>
    <polygon points="163.616 109.108 106.138 109.108 121.856 87.82 145.347 87.82 136.341 100.026 146.826 100.026 155.841 87.82 179.329 87.82 163.616 109.108" fill="#d40511"/>
    <path d="M211.8639,87.8206,196.15,109.1086H171.2555s15.72-21.288,15.7277-21.288Z" fill="#d40511"/>
  </g>
</svg>
